…
    ## [1] 1.140978

-   NBA teams average 1.11 points per shot (PPS). The five main players of GSW, exceed that mark by averaging 1.14 PPS.

##### 4.Shooting Distance and Made Shot

-   Besides the effective shooting percentage and points per shot analysis, I also wanted to look at the relationship between shooting distance and made shot. Therefore, I made a table consisting of shooting distance and corresponding proportion of made shot. The table is as follow:

-   Table of Shooting Distance and the Corresponding Made Shots

<!-- -->

    ## # A tibble: 56 x 2
    ##    shot_distance percentage_of_made_shot
    ##            <int>                   <dbl>
    ##  1             0                    84.1
    ##  2             1                    66.8
    ##  3             2                    53.4
    ##  4             3                    37.4
    ##  5             4                    41.1
    ##  6             5                    28.6
    ##  7             6                    39.6
    ##  8             7                    39.5
    ##  9             8                    46.3
    ## 10             9                    32.1
    ## # … with 46 more rows
…
